<svg width="65" height="60" viewBox="0 0 65 60" fill="none" xmlns="http://www.w3.org/2000/svg">
<g clip-path="url(#clip0_854_2042)">
<path d="M64.832 34.2748L61.232 23.0748L54.032 0.874805C53.632 -0.225195 52.032 -0.225195 51.632 0.874805L44.432 23.0748H20.532L13.332 0.874805C12.932 -0.225195 11.332 -0.225195 10.932 0.874805L3.73203 23.0748L0.132031 34.2748C-0.167969 35.2748 0.132031 36.3748 1.03203 37.0748L32.532 59.9748L64.032 37.0748C64.832 36.4748 65.232 35.3748 64.832 34.2748Z" fill="#FC6D26"/>
<path d="M32.4979 59.9603L44.4979 23.0603H20.5979L32.4979 59.9603Z" fill="#DB3B21"/>
<path d="M32.5312 59.9608L20.5312 23.0608H3.7312L32.5312 59.9608Z" fill="#FC6D26"/>
<path d="M3.78857 23.0559L0.0885742 34.2559C-0.211426 35.2559 0.0885742 36.3559 0.988574 37.0559L32.4886 59.9559L3.78857 23.0559Z" fill="#FCA326"/>
<path d="M3.72192 23.0555H20.5219L13.3219 0.855518C12.9219 -0.244482 11.3219 -0.244482 10.9219 0.855518L3.72192 23.0555Z" fill="#DB3B21"/>
<path d="M32.4978 59.9608L44.4978 23.0608H61.2978L32.4978 59.9608Z" fill="#FC6D26"/>
<path d="M61.2072 23.0559L64.8072 34.2559C65.1072 35.2559 64.8072 36.3559 63.9072 37.0559L32.4072 59.9559L61.2072 23.0559Z" fill="#FCA326"/>
<path d="M61.2739 23.0555H44.4739L51.6739 0.855518C52.0739 -0.244482 53.6739 -0.244482 54.0739 0.855518L61.2739 23.0555Z" fill="#DB3B21"/>
</g>
<defs>
<clipPath id="clip0_854_2042">
<rect width="65" height="60" fill="white"/>
</clipPath>
</defs>
</svg>
